{
  "type": "service_account",
  "project_id": "industrial-gist-310505",
  "private_key_id": "e0d5f2d13fc8cf1934f69b68932b92c0b745609a",
  "private_key": "-----BEGIN PRIVATE KEY-----\nMIIEvQIBADANBgkqhkiG9w0BAQEFAASCBKcwggSjAgEAAoIBAQC6o2LHUnwWaq+s\nSKC1oBJS9L40qEU+kx1BhtLhCphL7LhPufR22AFN5njyAUqM46JxQdeZhZkI+ZUS\n7gJehjJDLNBX/Msy0BnSMOSkAvi1eiFQj643pqneeMCUl+USgAVa9hPCyHLDO61t\nWj4DBw/+YCParr6kDQ1hkWkeoV72SaEs0C18V6Ydn0DtlT7vvb5E4LOYaYs3e1gW\nPPxG78I00t/cLPKhlIq52uKF84oPsUcEOUKHG+dBcNFy/R9TWGsB/9BCpssSwAVI\nseUn9q11xLsJBkL6TP6VO1CWlEy1MebqFCRKNt0y1Dls2ODgs2+REL7lESuibHAb\nQI5UIIXJAgMBAAECggEAH8Hwa2kqKyhRJxgenHkV1R7HBK/DRJAE0OMPm/JREs4/\nWHWUVuqPYkF+v/MfS9TqDap99KYKccACMTvllE7yW4LTGr2tl8JYOm9OYGgPCNY0\nuAASzW5jBjN21XH5LQoynxUzLJguCvFrI6nQ1nQLsSWLxEiqsMB1z+3NvMQJpA99\n3+ILoORzRzN+hInWZvfww8MMx5becTs0gQ09tXJQdbLbtAIzaMYbsEpk08VLi2k5\nFxbWSmgplClZCNB12GCjMLvUpTy3CoXkdi3SciWPPUG+PaTdxkHlh7jbmK5/meov\nx8K5vL6bip33TYNTlATJzujD5pMjG0imjZPx6YQHGQKBgQDf+AfdybhRv2jwnH7j\niBxaQKH/c7MeYEKshOanxT64bUky/lbTQGBpuXgWTqaEigx+zidw7+FF0eHbcLwB\nEcPF2qtaBx5YKwFGF9E+FjH/S7XZrSpmS0yvb+dCgKaH0QupIgtQRnzJyNTZqABd\nuw2OYtqjihi7YX2RDlQDprRfxQKBgQDVVJoiSoYqTuHlwG4QXUH3Z4w6HVoDSL/m\n3r24bqMYIIKVfQT0sUxzxhAbArdQjQGv7W/OO8VtHzBxwJw3tQ1w4m/ULkF+x6Fi\nwTXaXdWuqX2H7DUJ5MjT+y7EKia9o5Dkm50JJe+I+xsSsVpImZTlTuNpBWM3e+Eu\nc7NVjo8KNQKBgF9afA7jGQRE1+rI1gUNJ/UM22uk2LewB/LnSkRXZ9KhRK7fNhwO\npn2cpxHoPmDjXVqHbqdYmbJeHyiMIJ7b71vHM3jK2xJyjMJI1Z73WCX3F98rKIgQ\nuv9eRzk7CKt+RtalVefBetN2G5jnO/Cr+KOMVsWVv93XLdyaGw7K5LR5AoGAU6ti\n6KAiDuXxY5Mdl/17qfVK4mAwtakK2xnxfyylewkFLmxiTTZcreu41V8zVrx3NPED\nMPfwbuQUtAi/PHoeU2/8PFQIDBlwCrOM06CJ9n8zZOQXyVGaEsophXaiyy4j3gXK\niZP/ZtJVw/cbWe4in+1Y9A/Q4ioMH5PxelT3dSECgYEAx4utO5JuDftR7XJwTlSG\nK5BR76JHjDGvPSuRv8V67Bsz3EC9UlQHRXYVwV1MzdR4QaWDTsJqQVClk8x6i4CZ\nZteJ3WMT34D0FfPArh34OlDF6eRppB17n1ZtHUxLzaJXGie8S0XOAG4NqOnyqRHu\nZAMinGlHbeF/6gtePLpn2nk=\n-----END PRIVATE KEY-----\n",
  "client_email": "speechtotext-storage@industrial-gist-310505.iam.gserviceaccount.com",
  "client_id": "100856731703722177080",
  "auth_uri": "https://accounts.google.com/o/oauth2/auth",
  "token_uri": "https://oauth2.googleapis.com/token",
  "auth_provider_x509_cert_url": "https://www.googleapis.com/oauth2/v1/certs",
  "client_x509_cert_url": "https://www.googleapis.com/robot/v1/metadata/x509/speechtotext-storage%40industrial-gist-310505.iam.gserviceaccount.com"
}
